Exploring CO2 emissions across time
…
For example the country variable is made up of character
(abbreviated as chr) values.

CO2_emissions %>%
  select(country)

# A tibble: 192 × 1
   country            
   <chr>              
 1 Afghanistan        
 2 Albania            
 3 Algeria            
 4 Andorra            
 5 Angola             
 6 Antigua and Barbuda
 7 Argentina          
 8 Armenia            
 9 Australia          
10 Austria            
# ℹ 182 more rows
…
# A tibble: 6 × 4
  Country      Year   GDP Label                
  <chr>       <dbl> <dbl> <chr>                
1 Afghanistan  1801    NA GDP Growth/Capita (%)
2 Afghanistan  1802    NA GDP Growth/Capita (%)
3 Afghanistan  1803    NA GDP Growth/Capita (%)
4 Afghanistan  1804    NA GDP Growth/Capita (%)
5 Afghanistan  1805    NA GDP Growth/Capita (%)
6 Afghanistan  1806    NA GDP Growth/Capita (%)

gdp_growth %>%
  count(Year)

# A tibble: 219 × 2
    Year     n
   <dbl> <int>
 1  1801   194
 2  1802   194
 3  1803   194
 4  1804   194
 5  1805   194
 6  1806   194
 7  1807   194
 8  1808   194
 9  1809   194
10  1810   194
# ℹ 209 more rows
…
Looks good!

US Specific Data

Now we will take a look at the US data about disasters and
temperature.

Disasters

First, we consider the disasters that have occurred in the US.

us_disaster

# A tibble: 40 × 57
    Year `Drought Count` `Drought Cost` `Drought Lower 75` `Drought Upper 75`
   <dbl>           <dbl>          <dbl>              <dbl>              <dbl>
 1  1980               1           33.2               26.4               39.6
 2  1981               0            0                  0                  0  
 3  1982               0            0                  0                  0  
 4  1983               1            7.8                5.5                9  
 5  1984               0            0                  0                  0  
 6  1985               0            0                  0                  0  
 7  1986               1            4.2                3.5                5  
 8  1987               0            0                  0                  0  
 9  1988               1           44.4               33.8               54  
10  1989               1            6.4                5.6                7.4
# ℹ 30 more rows
# ℹ 52 more variables: `Drought Lower 90` <dbl>, `Drought Upper 90` <dbl>,
#   `Drought Lower 95` <dbl>, `Drought Upper 95` <dbl>, `Flooding Count` <dbl>,
#   `Flooding Cost` <dbl>, `Flooding Lower 75` <dbl>,
#   `Flooding Upper 75` <dbl>, `Flooding Lower 90` <dbl>,
#   `Flooding Upper 90` <dbl>, `Flooding Lower 95` <dbl>,
#   `Flooding Upper 95` <dbl>, `Freeze Count` <dbl>, `Freeze Cost` <dbl>, …
…
yearly_disasters

 [1]  3  2  3  5  2  5  2  0  1  5  3  4  7  5  6  5  4  3 10  5  4  2  4  7  5
[26]  6  7  5 12  7  6 16 11  9  8 10 15 16 14 14

We could then add this to our us_diaster tibble like so
using the bind_cols function of the dplyr
package:

us_disaster %>% bind_cols(Disaters = yearly_disasters)

# A tibble: 40 × 9
    Year `Drought Count` `Flooding Count` `Freeze Count` `Severe Storm Count`
   <dbl>           <dbl>            <dbl>          <dbl>                <dbl>
 1  1980               1                1              0                    0
 2  1981               0                0              1                    1
 3  1982               0                0              0                    2
 4  1983               1                2              1                    0
 5  1984               0                0              0                    2
 6  1985               0                0              1                    0
 7  1986               1                0              0                    1
 8  1987               0                0              0                    0
 9  1988               1                0              0                    0
10  1989               1                0              1                    1
# ℹ 30 more rows
# ℹ 4 more variables: `Tropical Cyclone Count` <dbl>, `Wildfire Count` <dbl>,
#   `Winter Storm Count` <dbl>, Disaters <dbl>
…
We just need to indicate the start and stop characters.

In this case the start would be 1 and the 4th character would be
where we want to stop, so we would use start = 1, stop = 4.
We can do this inside of the mutate() function to modify
the Date variable. In doing so, we will not need to use
pull() to pull the values for the Date
variable.

us_temperature <- us_temperature %>% 
  mutate(Date = str_sub(Date, start = 1, end = 4))

us_temperature

# A tibble: 125 × 3
   Date  Value Anomaly
   <chr> <dbl>   <dbl>
 1 1895   50.3   -1.68
 2 1896   52.0   -0.03
 3 1897   51.6   -0.46
 4 1898   51.4   -0.59
 5 1899   51.0   -1.01
 6 1900   52.8    0.75
 7 1901   51.9   -0.15
 8 1902   51.6   -0.43
 9 1903   50.6   -1.4 
10 1904   51.2   -0.86
# ℹ 115 more rows
…
In this case, we filter to keep all rows where the
Indicator variable is equal to the word
Emissions. Notice that this needs to be in quotes, while
the variable name does not.

data_long %>%
  filter(Indicator == "Emissions")

# A tibble: 16,916 × 6
   Country      Year Label                       Indicator Value Region         
   <fct>       <dbl> <chr>                       <chr>     <dbl> <chr>          
 1 Afghanistan  1949 CO2 Emissions (Metric Tons) Emissions  14.7 Rest of the Wo…
 2 Afghanistan  1950 CO2 Emissions (Metric Tons) Emissions  84.3 Rest of the Wo…
 3 Afghanistan  1951 CO2 Emissions (Metric Tons) Emissions  91.7 Rest of the Wo…
 4 Afghanistan  1952 CO2 Emissions (Metric Tons) Emissions  91.7 Rest of the Wo…
 5 Afghanistan  1953 CO2 Emissions (Metric Tons) Emissions 106   Rest of the Wo…
 6 Afghanistan  1954 CO2 Emissions (Metric Tons) Emissions 106   Rest of the Wo…
 7 Afghanistan  1955 CO2 Emissions (Metric Tons) Emissions 154   Rest of the Wo…
 8 Afghanistan  1956 CO2 Emissions (Metric Tons) Emissions 183   Rest of the Wo…
 9 Afghanistan  1957 CO2 Emissions (Metric Tons) Emissions 293   Rest of the Wo…
10 Afghanistan  1958 CO2 Emissions (Metric Tons) Emissions 330   Rest of the Wo…
# ℹ 16,906 more rows

We also need to sum the emissions across countries for each year.
Here, we use the group_by() and summarize()
function that we previously learned about.

data_long %>%
  filter(Indicator == "Emissions") %>%
  group_by(Year) %>%
  summarize(Emissions = sum(Value))

# A tibble: 264 × 2
    Year Emissions
   <dbl>     <dbl>
 1  1751      9360
 2  1752      9360
 3  1753      9360
 4  1754      9370
 5  1755      9370
 6  1756     10000
 7  1757     10000
 8  1758     10000
 9  1759     10000
10  1760     10000
# ℹ 254 more rows
…
We previously made this plot:

load(here::here("plots", "CO2_temp_US.rda"))
CO2_temp_US

$data
# A tibble: 35 × 8
   Country        Year Region       Emissions   GDP Energy Disasters Temperature
   <fct>         <dbl> <chr>            <dbl> <dbl>  <dbl>     <dbl>       <dbl>
 1 United States  1980 United Stat…   4720000 -1.13   7940         3        52.4
 2 United States  1981 United Stat…   4540000  1.5    7650         2        53.1
 3 United States  1982 United Stat…   4310000 -2.82   7260         3        51.3
 4 United States  1983 United Stat…   4340000  3.25   7200         5        51.9
 5 United States  1984 United Stat…   4480000  6.36   7440         2        52.0
 6 United States  1985 United Stat…   4490000  2.95   7460         5        51.3
 7 United States  1986 United Stat…   4500000  2.5    7380         2        53.3
 8 United States  1987 United Stat…   4690000  2.6    7620         0        53.3
 9 United States  1988 United Stat…   4890000  3.26   7850         1        52.6
10 United States  1989 United Stat…   4960000  2.49   7890         5        51.8
# ℹ 25 more rows
…
